{
    "nombreApp": "Componentes",
    "rutas": [
        {
            "ruta": "alert",
            "icon": "add_alert",
            "texto": "Alertas"
        },
        {
            "ruta": "avatar",
            "icon": "accessibility",
            "texto": "Avatars"
        },
        {
            "ruta": "card",
            "icon": "folder_open",
            "texto": "Cards - Tarjetas"
        },
        {
            "ruta": "container",
            "icon": "contenedor",
            "texto": "Contenedores"
        },
        {
            "ruta": "detail",
            "icon": "detalles",
            "texto": "Opciones de la app"
        },
        {
            "ruta": "detail",
            "icon": "options",
            "texto": "Ver otras opciones"
        },
        {
            "ruta": "detail",
            "icon": "about",
            "texto": "Acerca de la app"
        }
    ]
}